-32 -40 -16 -56 -40 768
-80 904
104 -8 -32 24 -16 -72 688
-32 -40 -48 -16 824
-32 952
-64 -32 -40 832
-40 -48 -56 824
-16 -24 -32 896
-56 928
-24 -32 -64 848
120 -32 824
-56 -64 -8 840
-56 112 -40 760
-40 -32 -16 880
-64 920
-32 952
-8 976
-8 -8 232 -8 -8 -8 -8 -8 -8 -8 -8 -8 -8 -8 -8 -8 -8 -8 -8 -8 -8 -8 -8 -8 -8 -8 -8 -8 -8 -8 -8 -8 -8 -8 -8 -8 -8 -8 -8 -8 -8 -8 96
-80 -8 -8 -8 -8 -8 -8 -8 -8 -8 -8 -8 -8 -8 -8 -8 664
992
